W07-Reflection Essay-Introduction to Positron
…
df <- tibble(
  student_id = sprintf("S%03d", seq_len(n)),
  name = paste0("Student_", seq_len(n)),
  score = pmin(pmax(round(rnorm(n, mean = 75, sd = 12)), 0), 100)
)

p <- ggplot(df, aes(x = score)) +
  geom_histogram(binwidth = 5, color = "white", fill = "#2c7fb8") +
  labs(title = "Distribution of Student Test Scores", x = "Test score", y = "Count") +
  theme_minimal()

list(data = df, plot = p)

$data
# A tibble: 200 × 3
   student_id name       score
   <chr>      <chr>      <dbl>
 1 S001       Student_1     91
 2 S002       Student_2     68
 3 S003       Student_3     79
 4 S004       Student_4     83
 5 S005       Student_5     80
 6 S006       Student_6     74
 7 S007       Student_7     93
 8 S008       Student_8     74
 9 S009       Student_9     99
10 S010       Student_10    74
# ℹ 190 more rows
…
